User ID,Year,Fourth Year Ballot,Syndicate ID,Which applies to you,Room Requirements,Room Features,House or Staircase preference,Short or Long term lease,Double Bed,Ensuite,Upper floor room,Room facing court (staircase only),Room NOT facing Lensfield Road,Recently renovated kitchen,Recently renovated bathroom,Recently renovated room,Preferred minimum room size (m2),Preferred maximum room size (m2),Anything else we should know,Estimated Price Per Week,Acceptable overpay percentage,Acceptable Price Per Week
"14","1",,,"A: I have no room requirements",,,"Definitely staircase","Probably short lease","Indifferent","Definitely","A little","Indifferent","Indifferent","Indifferent","Indifferent","Indifferent","10","14",,"161.57","8","174.5"
"231","2",,,"A: I have no room requirements",,,"Probably staircase","Definitely short lease","Definitely","Definitely","A little","Definitely","Definitely","Indifferent","A little","Indifferent","13","20",,"186.87","8","201.82"
"190","2",,,"A: I have no room requirements",,,"Indifferent","Indifferent","Indifferent","A lot","Definitely","Indifferent","Indifferent","A lot","A little","A little","15","25",,"178.4","8","192.67"
"138","2",,,"A: I have no room requirements",,,"Probably house","Probably long lease","Indifferent","A little","Indifferent","Indifferent","Indifferent","Indifferent","Indifferent","Indifferent","15","30",,"169.06","8","182.58"
"9","1",,"048","B: I have room requirements","[""A: I require a room with certain features for medical or religious reasons (e.g. ensuite, fridge, location)""]","ensuite","Definitely staircase","Definitely short lease","Definitely","Definitely","Indifferent","A little","Indifferent","A little","Indifferent","Indifferent","13","20","En suite is a top priority for us.","178.69","8","192.99"
"73","1",,"049","A: I have no room requirements",,,"Indifferent","Definitely long lease","Definitely","Definitely","Indifferent","Indifferent","Indifferent","Indifferent","Indifferent","Indifferent","14","40",,"188.03","100","211"
"181","2",,,"A: I have no room requirements",,,"Indifferent","Definitely short lease","Indifferent","Definitely","Not really","Not really","Not really","A little","Indifferent","A little","12","14",,"162.81","14","185.6"
"200","2",,,"A: I have no room requirements",,,"Indifferent","Probably short lease","Not really","Definitely","A little","Indifferent","A little","Not really","Indifferent","Indifferent","11","16",,"161.72","8","174.66"
"44","1",,"049","A: I have no room requirements",,,"Indifferent","Definitely long lease","Definitely","Definitely","A little","A lot","Indifferent","Indifferent","Indifferent","Indifferent","11","20",,"177.66","100","211"
"101","1",,,"A: I have no room requirements",,,"Probably house","Indifferent","Indifferent","Definitely","A little","A little","A little","Indifferent","Indifferent","Indifferent","15","30",,"179.41","8","193.76"
"238","2",,,"A: I have no room requirements",,,"Definitely house","Probably long lease","Not really","Indifferent","A lot","Indifferent","Definitely","Indifferent","Indifferent","Indifferent","15","25",,"166.61","8","179.94"
